# vtk DataFile Version 2.0
gridsize20, Created by Gmsh
ASCII
DATASET UNSTRUCTURED_GRID
POINTS 568 double
0 0 0
1 0 0
1 1 0
0 1 0
0.04999999999989965 0 0
0.09999999999981467 0 0
0.1499999999997036 0 0
0.1999999999995579 0 0
0.2499999999994121 0 0
0.2999999999992664 0 0
0.3499999999991206 0 0
0.3999999999989749 0 0
0.4499999999988292 0 0
0.4999999999986943 0 0
0.5499999999988151 0 0
0.5999999999989468 0 0
0.6499999999990784 0 0
0.69999999999921 0 0
0.7499999999993417 0 0
0.7999999999994734 0 0
0.8499999999996051 0 0
0.8999999999997368 0 0
0.9499999999998684 0 0
1 0.04999999999989965 0
1 0.09999999999981467 0
1 0.1499999999997036 0
1 0.1999999999995579 0
1 0.2499999999994121 0
1 0.2999999999992664 0
1 0.3499999999991206 0
1 0.3999999999989749 0
1 0.4499999999988292 0
1 0.4999999999986943 0
1 0.5499999999988151 0
1 0.5999999999989468 0
1 0.6499999999990784 0
1 0.69999999999921 0
1 0.7499999999993417 0
1 0.7999999999994734 0
1 0.8499999999996051 0
1 0.8999999999997368 0
1 0.9499999999998684 0
0.9499999999997918 1 0
0.8999999999995836 1 0
0.8499999999996529 1 0
0.7999999999999998 1 0
0.7500000000003466 1 0
0.7000000000006934 1 0
0.6500000000010401 1 0
0.6000000000013869 1 0
0.5500000000017335 1 0
0.5000000000020587 1 0
0.4500000000018723 1 0
0.4000000000016644 1 0
0.3500000000014564 1 0
0.3000000000012483 1 0
0.2500000000010403 1 0
0.2000000000008322 1 0
0.1500000000006241 1 0
0.100000000000416 1 0
0.05000000000020799 1 0
0 0.9499999999997918 0
0 0.8999999999995836 0
0 0.8499999999996529 0
0 0.7999999999999998 0
0 0.7500000000003466 0
0 0.7000000000006934 0
0 0.6500000000010401 0
0 0.6000000000013869 0
0 0.5500000000017335 0
0 0.5000000000020587 0
0 0.4500000000018723 0
0 0.4000000000016644 0
0 0.3500000000014564 0
0 0.3000000000012483 0
0 0.2500000000010403 0
0 0.2000000000008322 0
0 0.1500000000006241 0
0 0.100000000000416 0
0 0.05000000000020799 0
0.5033399805493872 0.5011971579196897 0
0.7025205088195918 0.7035888426191583 0
0.2964111573808434 0.7025205088195892 0
0.7035888426191574 0.2974794911804156 0
0.2974794911804171 0.2964111573808435 0
0.5000000000000264 0.7803135888501761 0
0.2196864111498267 0.5000000000000315 0
0.7803135888501738 0.4999999999999757 0
0.4999999999999711 0.2196864111498291 0
0.8289812646369813 0.8289812646369882 0
0.1710187353630001 0.8289812646369611 0
0.8319978061333785 0.1690131600686714 0
0.1690131600686817 0.1680021938666308 0
0.5656651559646168 0.6367046497140909 0
0.3598432055749209 0.5669860627177887 0
0.640156794425081 0.4330139372822172 0
0.4330139372822104 0.3598432055749214 0
0.6396925151783632 0.8459852991289039 0
0.1540147008710982 0.6396925151783696 0
0.8459852991288966 0.3603074848216404 0
0.3603074848216346 0.1540147008711054 0
0.8459852991288416 0.6396925151782715 0
0.3603074848217415 0.8459852991288246 0
0.6396925151782666 0.1540147008711593 0
0.1540147008711762 0.3603074848217465 0
0.4434591735942961 0.6664164062255122 0
0.6654858443153088 0.5561671280828306 0
0.3338266352733016 0.4413012504750348 0
0.5586987495249669 0.3338266352733065 0
0.5343214234729223 0.88563193847252 0
0.1143680615274819 0.5343214234729273 0
0.8856105906375696 0.4657276195623756 0
0.4656785765270602 0.1143680615275231 0
0.7419880486468834 0.908927187203274 0
0.09107281279671958 0.741988048646878 0
0.8958600093154407 0.2571461949877042 0
0.2571461949877131 0.1041399906845497 0
0.8894906209313578 0.7369458544253126 0
0.7368824640183259 0.1104775404132314 0
0.2630541455747039 0.8894906209313616 0
0.1104775404132264 0.2631175359816939 0
0.5981953737101641 0.7438096602414339 0
0.2561903397585688 0.5981953737101686 0
0.743809660241427 0.4018046262898413 0
0.4018046262898373 0.2561903397585753 0
0.7441739406320065 0.6049203001048884 0
0.3950796998951288 0.7441739406320105 0
0.6049203001048838 0.2558260593679973 0
0.2558260593679932 0.3950796998951336 0
0.9004503972088092 0.9020090423547924 0
0.9008275852690089 0.09807684568291651 0
0.09799095764520824 0.9004503972088092 0
0.09807684568291532 0.09917241473099349 0
0.4359067399905331 0.9028990204227966 0
0.09710097957720733 0.4359067399905319 0
0.9028990204227227 0.5640932600094611 0
0.5640932600094624 0.09710097957728127 0
0.7398280348099158 0.796296086969917 0
0.203703913030074 0.7398280348098948 0
0.796296086969941 0.2601719651901145 0
0.260171965190135 0.20370391303005 0
0.779984818231177 0.71397317153692 0
0.2860268284630864 0.7799848182311759 0
0.7139731715369271 0.220015181768822 0
0.2200151817688223 0.2860268284630798 0
0.491891013208803 0.590243311873248 0
0.5738763636062071 0.5431843139013534 0
0.4100959806956956 0.4908393574928538 0
0.5490159137494037 0.4230652352516575 0
0.6519524273377173 0.6424993192059454 0
0.3594493723771697 0.6516478980843632 0
0.6424993192059415 0.3480475726622802 0
0.3480475726622739 0.3575006807940601 0
0.8170957408684321 0.9131869608065677 0
0.08681303919343139 0.8170957408684288 0
0.9183880259387093 0.1817259028975781 0
0.1817259028975821 0.08161197406129285 0
0.9183880259388423 0.8182740971023721 0
0.8211813651170634 0.08287507656972301 0
0.1817259028976386 0.9183880259388886 0
0.08287507656968085 0.1788186348829835 0
0.5148430472122084 0.6970723395183633 0
0.3029276604816395 0.5148430472122147 0
0.7001511906722513 0.4848191499172746 0
0.483788712280009 0.2974517782697736 0
0.6093837135931466 0.9184748968380032 0
0.0815251031619976 0.6093837135931509 0
0.9189012345446693 0.3909474272959731 0
0.390616286406845 0.08152510316199166 0
0.9267032118385335 0.6577304291015108 0
0.6577304291015189 0.07329678816147234 0
0.3422695708985129 0.9267032118385877 0
0.07329678816141812 0.3422695708985055 0
0.43087117257049 0.8215422551712771 0
0.8215422551712277 0.569128827429545 0
0.1784577448287256 0.4308711725704943 0
0.5691288274295404 0.1784577448287746 0
0.461024257085337 0.4325419913433259 0
0.5675926399098918 0.8179431903460165 0
0.1820568096539862 0.5675926399098974 0
0.8179431903459742 0.4324073600900932 0
0.4324073600900885 0.1820568096540278 0
0.6682031601950398 0.7776980060279698 0
0.2223019939720277 0.6682031601950317 0
0.7776980060279668 0.3317968398049748 0
0.3317968398049833 0.2223019939720311 0
0.677572688082314 0.9310620665618309 0
0.06893793343816279 0.6775726880823106 0
0.9310620665618531 0.322427311917695 0
0.322427311917699 0.06893793343814078 0
0.4356533960402851 0.5515938435710134 0
0.5898107371117733 0.4814093102084985 0
0.4985434159976798 0.3707591476812712 0
0.4476494329589419 0.7375241526540166 0
0.7375241526540119 0.5523505670410848 0
0.2624758473459863 0.4476494329589473 0
0.5517564781472011 0.2610450553208664 0
0.3941988667531853 0.4191222524007079 0
0.4866977706045427 0.9351066681964659 0
0.06489333180353481 0.4866977706045447 0
0.9351066681964095 0.5133022293955194 0
0.5133022293955174 0.06489333180359143 0
0.40653508887824 0.6158057337748041 0
0.4977172705590878 0.8399868579764177 0
0.1600131420235847 0.4977172705590929 0
0.8399857465730889 0.5022852827018408 0
0.5022827294409378 0.160013142023597 0
0.7008572832070408 0.8435037902987506 0
0.1564962097012354 0.70085728320704 0
0.8435037902987796 0.2991427167929699 0
0.2991427167929712 0.1564962097012066 0
0.839908789927305 0.7710607097526261 0
0.2289392902473729 0.8399087899272781 0
0.7721632508777295 0.1589969516331982 0
0.1589969516332145 0.2278367491222767 0
0.7639580459520461 0.6780817167306038 0
0.3219182832694051 0.7639580459520459 0
0.678081716730602 0.2360419540479586 0
0.2360419540479583 0.3219182832694074 0
0.6451856454169057 0.6960156332500155 0
0.3042163538432152 0.6451493919343673 0
0.6960156332500125 0.3548143545830971 0
0.3548143545830931 0.3039843667499897 0
0.6123348939390167 0.6084674000356002 0
0.6012239052952366 0.3909780107182022 0
0.9394694856198154 0.6048537357103712 0
0.6048537357103756 0.06053051438018787 0
0.3951462642897322 0.9394694856198519 0
0.06053051438015096 0.3951462642897279 0
0.644551636118665 0.5036930179455107 0
0.9415664748877826 0.05843352511225672 0
0.05843352511226652 0.05843352511221451 0
0.9415664748877556 0.9415664748877426 0
0.05843352511225414 0.9415664748877458 0
0.7768897711833139 0.9470619985786625 0
0.05293800142133576 0.7768897711833116 0
0.9446562253046866 0.2316746033344629 0
0.231674603334463 0.05534377469531045 0
0.9442075111696665 0.7677735618239077 0
0.7654341916234468 0.05645222870842097 0
0.2322264381761766 0.9442075111697057 0
0.05645222870837994 0.2345658083766158 0
0.7828491226277007 0.8374630804976358 0
0.1625369195023505 0.7828491226276856 0
0.8453405318016117 0.2262639405833009 0
0.2262639405833196 0.1546594681983812 0
0.553072049857448 0.9481981223549169 0
0.05180187764508366 0.553072049857452 0
0.9481278282041521 0.4470894390493272 0
0.4469279501426525 0.05180187764506024 0
0.8560751976834335 0.693804688305292 0
0.693799297964562 0.1439220949479106 0
0.3061953116947261 0.8560751976834295 0
0.1439220949479144 0.306200702035457 0
0.5117247185887376 0.6401577127179487 0
0.358156517437794 0.5111344044790909 0
0.5705118262244783 0.6966865201849671 0
0.3042974067995974 0.569139051464601 0
0.6959578760418781 0.4307100015670799 0
0.430594867953342 0.3039597341906354 0
0.5446550232516182 0.7471798304408006 0
0.2528713944126256 0.5445835543449238 0
0.7473021860744267 0.4553910005364452 0
0.4553313602172508 0.2525687312087147 0
0.8669641073436716 0.9475309668331562 0
0.05246903316684374 0.8669641073436699 0
0.9410040660811551 0.1383574446607955 0
0.1383574446607988 0.05899593391884916 0
0.9409591627407494 0.8616527801054258 0
0.8658931436015557 0.05487269272663985 0
0.1383472198946279 0.9409591627407798 0
0.05487269272659555 0.1341068563984517 0
0.6928863779815373 0.612046652180014 0
0.3864235846730776 0.6928625892359724 0
0.6120466521800081 0.3071136220184666 0
0.3059765550038169 0.3934681685211931 0
0.5826713706468412 0.8701330136564084 0
0.1298669863435939 0.5826713706468463 0
0.8701266675059585 0.4174387318510304 0
0.4173286293531304 0.1298669863436228 0
0.7491786192765489 0.7422998925776044 0
0.2577001074223864 0.749178619276552 0
0.7422998925776226 0.250821380723454 0
0.2508213807234498 0.2577001074223685 0
0.6189657431932025 0.795216048370321 0
0.2047839516296828 0.6189657431932025 0
0.7952160483703001 0.3810342568067983 0
0.3810342568067986 0.2047839516297037 0
0.9463595284869861 0.7120924796172131 0
0.7117492281018692 0.05373017168768718 0
0.2879075203829438 0.9463595284870264 0
0.05373017168764663 0.2882507718982855 0
0.8517485358380986 0.8770523403142816 0
0.1229476596857173 0.851748535838097 0
0.8517485358380722 0.1229476596856861 0
0.1229476596856715 0.1482514641619544 0
0.5308731189259197 0.5529926314144852 0
0.3870301523936193 0.8028306815476197 0
0.8028306815476034 0.6129698476064203 0
0.197169318452384 0.387030152393625 0
0.6129698476064145 0.1971693184524002 0
0.7942248941787342 0.7964092523463444 0
0.2035907476536442 0.7942248941787186 0
0.8002748210460381 0.2059672113505213 0
0.2059672113505294 0.1997251789539622 0
0.7151894306097349 0.656794029317171 0
0.3427028010244592 0.7167241676203586 0
0.6567940293171692 0.2848105693902739 0
0.2847380523612829 0.3435576811867376 0
0.3783919092172706 0.8906467968861441 0
0.8906467968861036 0.6216080907827598 0
0.1093532031138598 0.3783919092172709 0
0.6216080907827599 0.1093532031139005 0
0.5354239795670391 0.6011987598234749 0
0.5075375820581106 0.4506562873613274 0
0.8084785234612243 0.6720812022978956 0
0.3279187977021341 0.8084785234612016 0
0.6720812022978762 0.1915214765387884 0
0.1915214765388105 0.3279187977021543 0
0.4529365699911777 0.5149483229707913 0
0.6087911281125356 0.6659242231159583 0
0.3323149740808168 0.6077921873287366 0
0.6634694225482676 0.391530810754116 0
0.3912088718874558 0.3340757768840429 0
0.8766029736039376 0.8104127896505644 0
0.1895872103494402 0.8766029736039457 0
0.6692329935572314 0.8804077449518628 0
0.1195922550481313 0.6692329935572279 0
0.8804077449518795 0.3307670064427889 0
0.3307670064427927 0.1195922550481146 0
0.4400611118284096 0.9563871963389079 0
0.04361280366109271 0.4400611118284039 0
0.9563871963388264 0.5599388881718611 0
0.5599388881718668 0.04361280366117441 0
0.8110316677333288 0.125875177082863 0
0.1258751770828468 0.1889683322666954 0
0.554170140907293 0.5092235335917779 0
0.4875806970804938 0.8908007254018654 0
0.1091992745981364 0.4875806970804978 0
0.8907980516829844 0.5124254453357238 0
0.5124193029195048 0.1091992745981813 0
0.4330678364002329 0.7803119821614439 0
0.7803119821614352 0.5669321635997974 0
0.2196880178385588 0.4330678364002379 0
0.5668331487841458 0.2194495525010469 0
0.7178917527401655 0.9513670825120215 0
0.04863291748797446 0.717891752740162 0
0.9491566609174897 0.2832080498529974 0
0.2832080498530014 0.05084333908250557 0
0.4551745703181461 0.627431000796044 0
0.8735579334638847 0.1892201105211365 0
0.1892201105211578 0.126442066536112 0
0.6375375691047032 0.9557816333925221 0
0.04421836660747534 0.6375375691047021 0
0.955812707569391 0.3624865665286586 0
0.3624624308953425 0.04421836660747722 0
0.6186694902680074 0.5549232276736629 0
0.3770238607471726 0.4581941756447681 0
0.5931338655158748 0.4397704784365324 0
0.5471563549088063 0.3782901602686207 0
0.8896226563081122 0.853117256814597 0
0.1468827431854194 0.8896226563081193 0
0.8877790925995608 0.1484760565886154 0
0.1484760565886207 0.1122209074004519 0
0.7802043079408478 0.8876830719755358 0
0.1123169280244563 0.7802043079408403 0
0.7115971489773328 0.7503904467929084 0
0.249609553207091 0.7115971489773293 0
0.7503904467929111 0.2884028510226779 0
0.288402851022681 0.2496095532070881 0
0.8267592398195142 0.956110537554562 0
0.04388946244543797 0.8267592398195128 0
0.9608096634649101 0.1803515901784196 0
0.1803515901784211 0.03919033653509049 0
0.9607109399698518 0.8195400878061568 0
0.820501740068229 0.03883999960095677 0
0.1804599121939799 0.960710939969875 0
0.03883999960093126 0.1794982599319015 0
0.3548142239712846 0.4031298146506934 0
0.3998278955399351 0.5346276221474062 0
0.472532117365031 0.3408171083080493 0
0.5149150739529993 0.3326740076510219 0
0.4797477386010389 0.5487272683132028 0
0.4234034233719369 0.4476213187485539 0
0.4907311344059858 0.7375900461873042 0
0.4673689173765443 0.7001553793037498 0
0.262418491288269 0.4907192229215412 0
0.299886550525317 0.4670072782759311 0
0.6979839660199856 0.5289734597937792 0
0.7381514235263996 0.5069705007200734 0
0.5073284119179919 0.2613117081243182 0
0.32894624184181 0.9677970182673893 0
0.03222092176754696 0.3290148921448752 0
0.967797018267387 0.6710537581584269 0
0.6709851078553618 0.03222092176754946 0
0.4615271434579892 0.473443594123526 0
0.4654321112821679 0.3878842354368189 0
0.5757806228153243 0.7775166535317635 0
0.2224870800581388 0.5757754137113416 0
0.7775255715808372 0.4242227316881841 0
0.4242183847261397 0.2224650200578777 0
0.8839654563313251 0.6625197322180193 0
0.3374802677819991 0.8839654563313468 0
0.6625186541498788 0.1160340021949529 0
0.1160340021949312 0.3374813458501403 0
0.6550163938377103 0.594528181397324 0
0.5959617068203578 0.3460940230586242 0
0.8955605451648666 0.2172061504648365 0
0.2172061504648471 0.1044394548351292 0
0.5404799816117372 0.8433351266948053 0
0.1566648733051971 0.5404799816117422 0
0.843332187369387 0.4595365182652234 0
0.4595200183882687 0.1566648733052425 0
0.5931441817276254 0.9588601226875167 0
0.04113987731248364 0.5931441817276302 0
0.9588601226874892 0.4068558182724159 0
0.4068558182724119 0.04113987731251168 0
0.4535389158127082 0.8555152337781891 0
0.1444847662218139 0.4535389158127119 0
0.8555147831683536 0.5464621193869522 0
0.5464610841872923 0.1444847662218687 0
0.4048145239608179 0.8513042122814161 0
0.8513041739642025 0.5951855640663858 0
0.1486957877185895 0.4048145239608207 0
0.5951854760392015 0.1486957877186449 0
0.3922205765778107 0.3806779669022742 0
0.9041449437197947 0.7786886066890556 0
0.2213113933109483 0.9041449437198319 0
0.663299691762665 0.4662604687200457 0
0.6420371153261211 0.7431647721329044 0
0.2568452925577325 0.6420355424796306 0
0.7431647721328989 0.3579628846738863 0
0.3579628846738841 0.2568352278671038 0
0.5478389186006921 0.4664016421482389 0
0.7792595115945615 0.09969477121230251 0
0.09969477121226406 0.2207404884054704 0
0.6248382803931567 0.8780818733396436 0
0.1219181266603569 0.624838280393159 0
0.878151871932338 0.3752352601713441 0
0.3751617196068391 0.121918126660369 0
0.9626668860319303 0.484951245400672 0
0.4849243305828917 0.03732139827627241 0
0.5150756694174708 0.9626786017237855 0
0.03732139827621526 0.5150756694174726 0
0.669198324048877 0.8182088869973059 0
0.1817911130026923 0.669198324048887 0
0.8182088869973061 0.3308016759511153 0
0.3308016759511058 0.1817911130026929 0
0.9005188030543272 0.6926186367334696 0
0.692536014667231 0.09949211948105087 0
0.3073813632665772 0.9005188030543503 0
0.09949211948102735 0.3074639853328164 0
0.95994154153058 0.09445785557927767 0
0.9055421444208047 0.9599415415306752 0
0.09445785557928461 0.04005845846941836 0
0.04005845846932265 0.9055421444207981 0
0.905542144420816 0.04005845846934747 0
0.9599415415306597 0.9055421444207862 0
0.04005845846931948 0.09445785557915773 0
0.09445785557918816 0.9599415415306871 0
0.6768914574865772 0.6786112007871424 0
0.3225985308207379 0.6767007260983519 0
0.6786112007871401 0.3231085425134302 0
0.3231032570156932 0.3214144340892405 0
0.5377042563579475 0.8010458746399964 0
0.1989632851005598 0.5376914766895048 0
0.801067078465648 0.4623071488802937 0
0.4622933088104427 0.1989091645665481 0
0.5405871965944125 0.6688941137907556 0
0.3313061975734879 0.5405256414684239 0
0.4056471750798269 0.6562642332052496 0
0.4659383896486906 0.8078187283550355 0
0.1921812716449668 0.4659383896486954 0
0.8078185424010798 0.5340620375490174 0
0.5340498228732742 0.1921528829143254 0
0.5687726442606689 0.9118230008071028 0
0.08817699919289869 0.5687726442606735 0
0.9099145415695795 0.4312731559748802 0
0.4312273557393398 0.08817699919291742 0
0.5047849391802508 0.4071995095571702 0
0.6766004019857833 0.9676421564932749 0
0.03235784350672252 0.6766004019857816 0
0.9672062870097469 0.3236243856595477 0
0.323619558532886 0.03279992782562471 0
0.6027107599280892 0.8343600679050233 0
0.1656399320949789 0.6027107599280946 0
0.8343600679049805 0.3972892400718996 0
0.3972892400718947 0.1656399320950218 0
0.6083790122881827 0.7049630070714586 0
0.2950369929285435 0.6083790122881894 0
0.7049630070714555 0.3916209877118195 0
0.3916209877118134 0.2950369929285456 0
0.9705550928355323 0.5249999999987544 0
0.5249999999987545 0.02944490716446918 0
0.4750000000019656 0.970555092835793 0
0.02944490716420912 0.4750000000019655 0
0.3583742343253836 0.7773044690431234 0
0.7773044690430964 0.6416257656746274 0
0.2226955309568789 0.358374234325388 0
0.641625765674624 0.2226955309569048 0
0.6989203093071221 0.7971997999085858 0
0.2028002000914135 0.6989203093071156 0
0.7971997999085878 0.3010796906928917 0
0.3010796906928983 0.2028002000914119 0
0.8130603300143783 0.8677384967307622 0
0.1322615032692282 0.8130603300143705 0
0.4046819887517062 0.5763793186919157 0
0.6261905449868119 0.4648294425185608 0
0.7865118979338634 0.7566415580865276 0
0.2433584419134728 0.7865118979338748 0
0.7582555232258138 0.2115548431873896 0
0.2115548431873881 0.2417444767741872 0
0.5292943521658031 0.2967121347250337 0
0.8312019486901514 0.7274500216795947 0
0.7276751684072106 0.1685376717739379 0
0.2725499783204153 0.8312019486901443 0
0.1685376717739448 0.2723248315928011 0
0.4271553833380808 0.7007775937530794 0
0.700875395677355 0.5716591461652623 0
0.2963043386970643 0.4298320229681446 0
0.5718833899907736 0.2987412348623015 0
0.741546289628576 0.8627482050002604 0
0.1372517949997298 0.7415462896285663 0
0.8538982660274101 0.2631894976960039 0
0.2631894976960132 0.1461017339725731 0
0.7047563155836591 0.9009812774510296 0
0.09901872254896336 0.7047563155836519 0
0.8988619107565471 0.2950633950370317 0
0.2950633950370389 0.1011380892434444 0
0.5962156736023891 0.5184866806641607 0
0.3710465129614542 0.6054517074831107 0
0.9665449168212239 0.6363613838740827 0
0.6363515766879351 0.03345764604091218 0
0.3636386161261361 0.9665449168212131 0
0.0334576460409223 0.3636484233122843 0
0.9676301429511442 0.0323698570487739 0
0.03236985704875332 0.03236985704886203 0
0.9676301429512015 0.9676301429512285 0
0.03045240961048967 0.9695475903895102 0
0.4663461218796705 0.7676758552406138 0
0.7679706986587376 0.5331599367016431 0
0.2323247670243714 0.4663452536956771 0
0.5326532725535913 0.231354542069191 0
0.6762627526958709 0.7271374192100901 0
0.2734965674486021 0.675817419964087 0
0.7271374192100832 0.3237372473041368 0
0.3237369262705022 0.27286413781594 0
0.4781875213396288 0.6645446290528086 0
0.3343642448930449 0.4784960312174079 0
0.4503022276230388 0.5844329511543102 0
0.4293082310640164 0.4062668501272297 0
0.6441774148058701 0.9145812357427403 0
0.08541876425725818 0.6441774148058688 0
0.9128671251120262 0.3563727144712919 0
0.3558225851941419 0.08541876425725844 0
0.5748440931359022 0.5843732163718411 0
0.8538279950892648 0.9129582938805841 0
0.08704170611941608 0.8538279950892619 0
0.8614861954133963 0.08968970219156844 0
0.08968970219154113 0.1385138045866224 0
0.7398493980638851 0.7074060029192314 0
0.2925512105451913 0.7399799029117319 0
0.7074060029192377 0.2601506019361153 0
0.2601444355220794 0.2926239044365352 0
0.5242533757822576 0.9223731761594427 0
0.07762682384055844 0.5242533757822613 0
0.9220374277204375 0.4757948557864163 0
0.4757466242178278 0.07762682384059097 0

CELLS 1054 4216
3 126 517 193
3 125 518 194
3 128 519 195
3 127 520 196
3 93 223 320
3 149 320 223
3 95 224 322
3 151 322 224
3 113 234 345
3 114 235 346
3 115 236 347
3 116 237 348
3 43 44 453
3 62 63 455
3 458 77 78
3 459 58 59
3 456 20 21
3 457 39 40
3 24 25 452
3 5 6 454
3 26 236 372
3 7 237 373
3 45 234 370
3 64 235 371
3 38 374 238
3 19 375 239
3 57 376 240
3 76 377 241
3 85 464 203
3 86 465 204
3 87 466 205
3 88 467 206
3 45 46 234
3 64 65 235
3 26 27 236
3 7 8 237
3 37 38 238
3 18 19 239
3 56 57 240
3 75 76 241
3 37 238 288
3 18 239 289
3 56 240 290
3 75 241 291
3 89 324 360
3 90 325 361
3 126 193 341
3 125 194 342
3 128 195 343
3 127 196 344
3 453 44 264
3 455 63 265
3 271 77 458
3 270 58 459
3 269 20 456
3 268 39 457
3 452 25 266
3 454 6 267
3 120 435 214
3 118 434 213
3 117 426 211
3 119 427 212
3 113 345 525
3 114 346 526
3 115 347 527
3 116 348 528
3 170 312 226
3 169 310 225
3 172 311 228
3 171 309 227
3 203 464 409
3 204 465 410
3 205 466 411
3 206 467 412
3 89 360 292
3 90 361 293
3 91 294 362
3 92 295 363
3 214 435 335
3 213 434 334
3 91 362 350
3 92 363 351
3 216 306 496
3 215 305 497
3 218 308 498
3 217 307 499
3 119 290 240
3 120 291 241
3 117 288 238
3 118 289 239
3 212 427 325
3 211 426 324
3 496 306 126
3 497 305 125
3 498 308 128
3 499 307 127
3 555 313 296
3 34 225 332
3 15 226 333
3 53 227 330
3 72 228 331
3 133 198 330
3 134 199 331
3 135 200 332
3 136 201 333
3 146 555 296
3 36 37 288
3 17 18 289
3 55 56 290
3 74 75 291
3 135 422 419
3 133 421 417
3 136 424 420
3 134 423 418
3 135 310 422
3 136 312 424
3 133 309 421
3 134 311 423
3 125 272 518
3 126 273 517
3 127 274 520
3 128 275 519
3 161 256 260
3 162 257 261
3 163 258 262
3 164 259 263
3 155 372 236
3 156 373 237
3 153 370 234
3 154 371 235
3 157 238 374
3 158 239 375
3 159 240 376
3 160 241 377
3 121 260 256
3 122 261 257
3 123 262 258
3 124 263 259
3 513 141 315
3 515 142 316
3 514 143 317
3 516 144 318
3 250 513 315
3 251 514 317
3 252 515 316
3 253 516 318
3 149 272 305
3 150 273 306
3 151 274 307
3 152 275 308
3 444 326 97
3 207 326 444
3 445 327 98
3 208 327 445
3 446 328 99
3 209 328 446
3 447 329 100
3 210 329 447
3 145 254 349
3 148 479 359
3 133 337 198
3 134 338 199
3 135 339 200
3 136 340 201
3 145 313 254
3 93 254 313
3 170 403 312
3 169 401 310
3 171 402 309
3 172 404 311
3 89 301 211
3 90 302 212
3 91 303 213
3 92 304 214
3 101 315 298
3 102 316 297
3 103 317 300
3 104 318 299
3 223 356 405
3 113 364 234
3 114 365 235
3 153 234 364
3 154 235 365
3 137 301 242
3 89 242 301
3 138 302 243
3 90 243 302
3 139 303 244
3 91 244 303
3 140 304 245
3 92 245 304
3 129 232 453
3 130 230 452
3 130 456 230
3 131 233 455
3 129 457 232
3 132 231 454
3 132 458 231
3 131 459 233
3 135 225 310
3 133 227 309
3 136 226 312
3 134 228 311
3 149 219 320
3 150 220 321
3 151 221 322
3 152 222 323
3 33 34 332
3 14 15 333
3 52 53 330
3 71 72 331
3 23 452 230
3 4 454 231
3 22 230 456
3 41 232 457
3 42 453 232
3 61 455 233
3 79 231 458
3 60 233 459
3 50 246 413
3 69 247 414
3 31 248 415
3 12 249 416
3 91 213 334
3 92 214 335
3 137 521 207
3 138 522 208
3 139 523 209
3 140 524 210
3 109 337 203
3 110 338 204
3 111 339 205
3 112 340 206
3 120 451 291
3 119 450 290
3 118 449 289
3 117 448 288
3 141 215 315
3 142 216 316
3 143 217 317
3 144 218 318
3 89 211 324
3 90 212 325
3 106 229 388
3 163 388 229
3 141 560 215
3 142 561 216
3 143 562 217
3 144 563 218
3 129 453 264
3 131 455 265
3 130 452 266
3 129 268 457
3 130 269 456
3 132 454 267
3 131 270 459
3 132 271 458
3 148 359 224
3 192 359 479
3 106 405 356
3 85 203 471
3 86 204 472
3 87 205 473
3 88 206 474
3 207 521 525
3 208 522 526
3 209 523 527
3 210 524 528
3 125 305 272
3 126 306 273
3 127 307 274
3 128 308 275
3 117 211 513
3 118 213 514
3 119 212 515
3 120 214 516
3 223 555 356
3 190 379 319
3 147 319 379
3 105 470 349
3 202 349 470
3 115 244 407
3 116 245 408
3 147 255 357
3 46 345 234
3 65 346 235
3 27 347 236
3 8 348 237
3 135 332 225
3 136 333 226
3 133 330 227
3 134 331 228
3 202 506 549
3 96 259 380
3 164 380 259
3 48 49 352
3 67 68 353
3 29 30 354
3 10 11 355
3 137 280 508
3 138 281 509
3 139 282 510
3 140 283 511
3 23 230 535
3 4 231 536
3 22 535 230
3 79 536 231
3 41 537 232
3 42 232 537
3 60 538 233
3 61 233 538
3 129 360 268
3 131 361 270
3 157 268 360
3 155 362 266
3 159 270 361
3 156 363 267
3 130 266 362
3 132 267 363
3 146 356 555
3 224 359 406
3 297 316 496
3 298 315 497
3 299 318 498
3 300 317 499
3 197 357 378
3 107 378 357
3 202 470 150
3 109 203 409
3 110 204 410
3 111 205 411
3 112 206 412
3 530 202 150
3 149 305 460
3 150 306 461
3 151 307 462
3 152 308 463
3 137 207 500
3 138 208 501
3 139 209 502
3 140 210 503
3 96 550 425
3 137 242 521
3 138 243 522
3 139 244 523
3 140 245 524
3 93 555 223
3 101 250 315
3 103 251 317
3 102 252 316
3 104 253 318
3 138 509 302
3 137 508 301
3 140 511 304
3 139 510 303
3 254 547 349
3 148 224 358
3 95 358 224
3 81 305 560
3 82 306 561
3 215 560 305
3 216 561 306
3 83 307 562
3 84 308 563
3 217 562 307
3 218 563 308
3 113 525 521
3 114 526 522
3 115 527 523
3 116 528 524
3 121 429 284
3 182 284 429
3 122 430 285
3 183 285 430
3 123 431 286
3 184 286 431
3 124 432 287
3 185 287 432
3 169 225 531
3 170 226 532
3 171 227 533
3 172 228 534
3 149 460 219
3 150 461 220
3 151 462 221
3 152 463 222
3 137 366 280
3 138 367 281
3 139 368 282
3 140 369 283
3 190 549 506
3 11 12 416
3 30 31 415
3 68 69 414
3 49 50 413
3 23 24 452
3 4 5 454
3 42 43 453
3 61 62 455
3 40 41 457
3 21 22 456
3 59 60 459
3 78 79 458
3 117 513 250
3 118 514 251
3 119 515 252
3 120 516 253
3 161 260 384
3 162 261 386
3 163 262 389
3 164 263 390
3 106 356 229
3 108 406 359
3 147 383 395
3 97 284 444
3 98 285 445
3 99 286 446
3 100 287 447
3 49 413 352
3 68 414 353
3 30 415 354
3 11 416 355
3 149 223 405
3 151 224 406
3 93 320 256
3 94 321 257
3 95 322 258
3 96 323 259
3 15 532 226
3 34 531 225
3 72 534 228
3 53 533 227
3 85 384 260
3 86 386 261
3 87 389 262
3 88 390 263
3 126 341 297
3 128 343 299
3 125 342 298
3 127 344 300
3 141 280 560
3 142 281 561
3 143 282 562
3 144 283 563
3 145 296 313
3 147 395 319
3 182 444 284
3 183 445 285
3 184 446 286
3 185 447 287
3 91 350 244
3 92 351 245
3 191 507 229
3 529 191 229
3 109 409 276
3 178 276 409
3 110 410 277
3 179 277 410
3 111 411 278
3 180 278 411
3 112 412 279
3 181 279 412
3 207 525 326
3 208 526 327
3 209 527 328
3 210 528 329
3 211 508 513
3 212 509 515
3 213 510 514
3 214 511 516
3 115 523 244
3 116 524 245
3 203 417 471
3 204 418 472
3 205 419 473
3 206 420 474
3 161 547 254
3 162 548 255
3 484 97 436
3 485 98 437
3 486 99 438
3 487 100 439
3 163 229 428
3 146 296 336
3 80 314 433
3 276 484 436
3 277 485 437
3 278 486 438
3 279 487 439
3 94 255 379
3 173 471 417
3 175 472 418
3 174 473 419
3 176 474 420
3 115 407 236
3 155 236 407
3 116 408 237
3 156 237 408
3 80 433 336
3 92 335 295
3 91 334 294
3 113 521 364
3 242 364 521
3 114 522 365
3 243 365 522
3 158 434 239
3 160 435 241
3 157 426 238
3 159 427 240
3 118 239 434
3 120 241 435
3 117 238 426
3 119 240 427
3 560 366 81
3 280 366 560
3 561 367 82
3 281 367 561
3 562 368 83
3 282 368 562
3 563 369 84
3 283 369 563
3 117 250 448
3 119 252 450
3 118 251 449
3 120 253 451
3 191 433 358
3 95 258 428
3 163 428 258
3 89 504 242
3 90 505 243
3 244 350 407
3 245 351 408
3 130 558 269
3 132 559 271
3 101 310 401
3 103 312 403
3 102 309 402
3 104 311 404
3 158 294 334
3 160 295 335
3 46 47 345
3 65 66 346
3 27 28 347
3 8 9 348
3 50 442 246
3 69 443 247
3 31 440 248
3 12 441 249
3 192 381 359
3 157 360 324
3 159 361 325
3 80 336 296
3 167 415 477
3 248 477 415
3 44 370 264
3 63 371 265
3 159 376 270
3 157 374 268
3 160 377 271
3 158 375 269
3 58 270 376
3 39 268 374
3 77 271 377
3 20 269 375
3 25 372 266
3 6 373 267
3 155 266 372
3 156 267 373
3 202 549 349
3 80 296 382
3 107 275 378
3 152 378 275
3 197 425 550
3 108 359 381
3 101 401 250
3 103 403 251
3 102 402 252
3 104 404 253
3 147 379 255
3 173 297 341
3 174 298 342
3 175 299 343
3 176 300 344
3 264 370 556
3 265 371 557
3 153 556 370
3 154 557 371
3 141 513 508
3 142 515 509
3 143 514 510
3 144 516 511
3 148 314 479
3 148 358 433
3 153 504 292
3 154 505 293
3 211 301 508
3 212 302 509
3 213 303 510
3 214 304 511
3 518 405 106
3 272 405 518
3 520 406 108
3 274 406 520
3 246 475 413
3 165 413 475
3 247 476 414
3 166 414 476
3 249 478 416
3 168 416 478
3 93 468 254
3 94 469 255
3 161 254 468
3 162 255 469
3 129 264 556
3 131 265 557
3 158 269 558
3 160 271 559
3 186 525 345
3 187 526 346
3 188 527 347
3 189 528 348
3 121 397 260
3 122 398 261
3 123 399 262
3 124 400 263
3 93 313 555
3 121 256 488
3 122 257 489
3 123 258 490
3 124 259 491
3 85 260 464
3 86 261 465
3 87 262 466
3 88 263 467
3 161 468 256
3 162 469 257
3 93 256 468
3 94 257 469
3 165 276 436
3 166 277 437
3 167 278 438
3 168 279 439
3 201 493 333
3 199 495 331
3 200 492 332
3 198 494 330
3 178 409 464
3 179 410 465
3 180 411 466
3 181 412 467
3 80 382 319
3 137 500 366
3 138 501 367
3 139 502 368
3 140 503 369
3 173 421 297
3 102 297 421
3 175 423 299
3 174 422 298
3 101 298 422
3 104 299 423
3 176 424 300
3 103 300 424
3 149 405 272
3 151 406 274
3 150 470 273
3 129 292 360
3 131 293 361
3 130 362 294
3 132 363 295
3 255 548 357
3 169 288 448
3 170 289 449
3 171 290 450
3 172 291 451
3 190 319 382
3 107 519 275
3 36 288 393
3 17 289 394
3 55 290 391
3 74 291 392
3 178 397 284
3 121 284 397
3 122 285 398
3 179 398 285
3 123 286 399
3 180 399 286
3 124 287 400
3 181 400 287
3 97 484 284
3 98 485 285
3 99 486 286
3 100 487 287
3 109 276 475
3 110 277 476
3 167 477 278
3 112 279 478
3 165 475 276
3 166 476 277
3 111 278 477
3 168 478 279
3 178 484 276
3 179 485 277
3 180 486 278
3 181 487 279
3 141 508 280
3 142 509 281
3 143 510 282
3 144 511 283
3 174 342 473
3 173 341 471
3 176 344 474
3 175 343 472
3 169 393 288
3 170 394 289
3 171 391 290
3 172 392 291
3 161 385 547
3 162 387 548
3 109 564 337
3 110 565 338
3 111 566 339
3 112 567 340
3 145 382 296
3 153 364 504
3 154 365 505
3 129 556 292
3 131 557 293
3 158 558 294
3 160 559 295
3 178 284 484
3 179 285 485
3 180 286 486
3 181 287 487
3 155 350 362
3 156 351 363
3 80 395 314
3 177 314 395
3 81 543 460
3 82 544 461
3 83 545 462
3 84 546 463
3 96 425 323
3 198 337 564
3 199 338 565
3 200 339 566
3 201 340 567
3 105 517 470
3 273 470 517
3 146 336 529
3 44 45 370
3 63 64 371
3 25 26 372
3 6 7 373
3 38 39 374
3 19 20 375
3 57 58 376
3 76 77 377
3 219 460 543
3 220 461 544
3 221 462 545
3 222 463 546
3 203 337 417
3 204 338 418
3 205 339 419
3 206 340 420
3 81 460 305
3 82 461 306
3 83 462 307
3 84 463 308
3 169 531 393
3 170 532 394
3 172 534 392
3 171 533 391
3 35 36 393
3 16 17 394
3 54 55 391
3 73 74 392
3 72 73 534
3 53 54 533
3 15 16 532
3 34 35 531
3 153 292 556
3 154 293 557
3 130 294 558
3 132 295 559
3 121 488 429
3 219 429 488
3 122 489 430
3 220 430 489
3 123 490 431
3 221 431 490
3 124 491 432
3 222 432 491
3 89 292 504
3 90 293 505
3 174 419 422
3 173 417 421
3 176 420 424
3 175 418 423
3 192 396 380
3 96 380 396
3 102 421 309
3 101 422 310
3 104 423 311
3 103 424 312
3 229 356 529
3 219 488 320
3 220 489 321
3 221 490 322
3 222 491 323
3 126 297 496
3 125 298 497
3 128 299 498
3 127 300 499
3 177 395 383
3 108 512 520
3 191 336 433
3 150 321 530
3 191 529 336
3 50 51 442
3 69 70 443
3 31 32 440
3 12 13 441
3 342 540 473
3 341 539 471
3 344 542 474
3 343 541 472
3 108 381 512
3 190 382 549
3 80 319 395
3 0 536 79
3 1 535 22
3 1 23 535
3 0 4 536
3 2 42 537
3 2 537 41
3 3 538 60
3 3 61 538
3 94 379 506
3 147 357 383
3 197 383 357
3 165 352 413
3 166 353 414
3 167 354 415
3 168 355 416
3 182 543 366
3 183 544 367
3 184 545 368
3 185 546 369
3 148 433 314
3 152 323 425
3 47 480 345
3 66 481 346
3 186 345 480
3 187 346 481
3 28 482 347
3 9 483 348
3 188 347 482
3 189 348 483
3 157 324 426
3 159 325 427
3 215 497 315
3 216 496 316
3 217 499 317
3 218 498 318
3 158 334 434
3 160 335 435
3 96 396 550
3 133 417 337
3 134 418 338
3 135 419 339
3 136 420 340
3 161 384 385
3 193 385 384
3 162 386 387
3 195 387 386
3 163 389 388
3 194 388 389
3 186 551 326
3 187 552 327
3 188 553 328
3 189 554 329
3 97 326 436
3 98 327 437
3 99 328 438
3 100 329 439
3 177 479 314
3 250 401 448
3 252 402 450
3 251 403 449
3 253 404 451
3 242 504 364
3 243 505 365
3 182 429 543
3 183 430 544
3 184 431 545
3 185 432 546
3 105 349 547
3 47 48 480
3 66 67 481
3 28 29 482
3 9 10 483
3 192 380 381
3 51 52 494
3 70 71 495
3 32 33 492
3 13 14 493
3 155 407 350
3 156 408 351
3 164 381 380
3 191 358 507
3 95 507 358
3 71 331 495
3 52 330 494
3 14 333 493
3 33 332 492
3 256 320 488
3 257 321 489
3 258 322 490
3 259 323 491
3 94 530 321
3 190 506 379
3 182 366 500
3 183 367 501
3 184 368 502
3 185 369 503
3 152 425 378
3 186 326 525
3 187 327 526
3 188 328 527
3 189 329 528
3 109 475 564
3 110 476 565
3 112 478 567
3 197 378 425
3 32 492 440
3 13 493 441
3 200 440 492
3 201 441 493
3 70 495 443
3 51 494 442
3 198 442 494
3 199 443 495
3 246 564 475
3 247 565 476
3 249 567 478
3 207 444 500
3 208 445 501
3 209 446 502
3 210 447 503
3 107 357 548
3 193 539 341
3 194 540 342
3 195 541 343
3 196 542 344
3 48 352 480
3 67 353 481
3 29 354 482
3 10 355 483
3 186 480 352
3 187 481 353
3 188 482 354
3 189 483 355
3 248 566 477
3 111 477 566
3 145 349 549
3 260 397 464
3 261 398 465
3 262 399 466
3 263 400 467
3 146 529 356
3 326 551 436
3 327 552 437
3 328 553 438
3 329 554 439
3 145 549 382
3 169 448 401
3 170 449 403
3 171 450 402
3 172 451 404
3 165 551 352
3 166 552 353
3 167 553 354
3 168 554 355
3 186 352 551
3 187 353 552
3 188 354 553
3 189 355 554
3 178 464 397
3 179 465 398
3 180 466 399
3 181 467 400
3 105 385 517
3 193 517 385
3 106 388 518
3 107 387 519
3 194 518 388
3 195 519 387
3 177 396 479
3 192 479 396
3 196 520 512
3 164 512 381
3 177 383 550
3 197 550 383
3 248 440 566
3 249 441 567
3 200 566 440
3 201 567 441
3 246 442 564
3 247 443 565
3 198 564 442
3 199 565 443
3 81 366 543
3 82 367 544
3 83 368 545
3 84 369 546
3 164 390 512
3 85 539 384
3 193 384 539
3 194 389 540
3 87 540 389
3 86 541 386
3 195 386 541
3 196 390 542
3 88 542 390
3 229 507 428
3 85 471 539
3 86 472 541
3 87 473 540
3 88 474 542
3 196 512 390
3 219 543 429
3 220 544 430
3 221 545 431
3 222 546 432
3 95 428 507
3 35 393 531
3 16 394 532
3 54 391 533
3 73 392 534
3 182 500 444
3 183 501 445
3 184 502 446
3 185 503 447
3 105 547 385
3 107 548 387
3 177 550 396
3 94 506 530
3 165 436 551
3 166 437 552
3 167 438 553
3 168 439 554
3 202 530 506

CELL_TYPES 1054
5
5
5
5
5
5
5
5
5
5
5
5
5
5
5
5
5
5
5
5
5
5
5
5
5
5
5
5
5
5
5
5
5
5
5
5
5
5
5
5
5
5
5
5
5
5
5
5
5
5
5
5
5
5
5
5
5
5
5
5
5
5
5
5
5
5
5
5
5
5
5
5
5
5
5
5
5
5
5
5
5
5
5
5
5
5
5
5
5
5
5
5
5
5
5
5
5
5
5
5
5
5
5
5
5
5
5
5
5
5
5
5
5
5
5
5
5
5
5
5
5
5
5
5
5
5
5
5
5
5
5
5
5
5
5
5
5
5
5
5
5
5
5
5
5
5
5
5
5
5
5
5
5
5
5
5
5
5
5
5
5
5
5
5
5
5
5
5
5
5
5
5
5
5
5
5
5
5
5
5
5
5
5
5
5
5
5
5
5
5
5
5
5
5
5
5
5
5
5
5
5
5
5
5
5
5
5
5
5
5
5
5
5
5
5
5
5
5
5
5
5
5
5
5
5
5
5
5
5
5
5
5
5
5
5
5
5
5
5
5
5
5
5
5
5
5
5
5
5
5
5
5
5
5
5
5
5
5
5
5
5
5
5
5
5
5
5
5
5
5
5
5
5
5
5
5
5
5
5
5
5
5
5
5
5
5
5
5
5
5
5
5
5
5
5
5
5
5
5
5
5
5
5
5
5
5
5
5
5
5
5
5
5
5
5
5
5
5
5
5
5
5
5
5
5
5
5
5
5
5
5
5
5
5
5
5
5
5
5
5
5
5
5
5
5
5
5
5
5
5
5
5
5
5
5
5
5
5
5
5
5
5
5
5
5
5
5
5
5
5
5
5
5
5
5
5
5
5
5
5
5
5
5
5
5
5
5
5
5
5
5
5
5
5
5
5
5
5
5
5
5
5
5
5
5
5
5
5
5
5
5
5
5
5
5
5
5
5
5
5
5
5
5
5
5
5
5
5
5
5
5
5
5
5
5
5
5
5
5
5
5
5
5
5
5
5
5
5
5
5
5
5
5
5
5
5
5
5
5
5
5
5
5
5
5
5
5
5
5
5
5
5
5
5
5
5
5
5
5
5
5
5
5
5
5
5
5
5
5
5
5
5
5
5
5
5
5
5
5
5
5
5
5
5
5
5
5
5
5
5
5
5
5
5
5
5
5
5
5
5
5
5
5
5
5
5
5
5
5
5
5
5
5
5
5
5
5
5
5
5
5
5
5
5
5
5
5
5
5
5
5
5
5
5
5
5
5
5
5
5
5
5
5
5
5
5
5
5
5
5
5
5
5
5
5
5
5
5
5
5
5
5
5
5
5
5
5
5
5
5
5
5
5
5
5
5
5
5
5
5
5
5
5
5
5
5
5
5
5
5
5
5
5
5
5
5
5
5
5
5
5
5
5
5
5
5
5
5
5
5
5
5
5
5
5
5
5
5
5
5
5
5
5
5
5
5
5
5
5
5
5
5
5
5
5
5
5
5
5
5
5
5
5
5
5
5
5
5
5
5
5
5
5
5
5
5
5
5
5
5
5
5
5
5
5
5
5
5
5
5
5
5
5
5
5
5
5
5
5
5
5
5
5
5
5
5
5
5
5
5
5
5
5
5
5
5
5
5
5
5
5
5
5
5
5
5
5
5
5
5
5
5
5
5
5
5
5
5
5
5
5
5
5
5
5
5
5
5
5
5
5
5
5
5
5
5
5
5
5
5
5
5
5
5
5
5
5
5
5
5
5
5
5
5
5
5
5
5
5
5
5
5
5
5
5
5
5
5
5
5
5
5
5
5
5
5
5
5
5
5
5
5
5
5
5
5
5
5
5
5
5
5
5
5
5
5
5
5
5
5
5
5
5
5
5
5
5
5
5
5
5
5
5
5
5
5
5
5
5
5
5
5
5
5
5
5
5
5
5
5
5
5
5
5
5
5
5
5
5
5
5
5
5
5
5
5
5
5
5
5
5
5
5
5
5
5
5
5
5
5
5
5
5
5
5
5
5
5
5
5
5
5
5
5
5
5
5
5
5
5
5
5
5
5
5
5
5
5
5
5
5
5
5
5
5
5
5
5
5
5
5
5
5
5
5
5
5
5
5
5
5
5
5
5
5
5
5
5
5
5
5
5
5
5
5
5
5
5
5
5
5
5
5
5
5
5
5
5
5
5
5
5
5
5
5
5
5
5
5
5
5
5
5
5
5
5
5
5
5
5
5
5
5
5
5
5
5
5
5
5
5
5
5
5
5
5
5
5
5
5
5
5
5
5
5
5
5
5
5
5
5
5
5
5
5
5
5
5
5
5
5
5
5
5
5
5
5
5
5
5
5
5
5
5
5
5
5
5
5
5
5
5
5
5
5
5
5
5
5
5
5
5
5
5
